\relax 
\providecommand\babel@aux[2]{}
\@nameuse{bbl@beforestart}
\catcode `"\active 
\babel@aux{russian}{}
\@writefile{toc}{\contentsline {section}{\numberline {1}Введение}{1}{}\protected@file@percent }
\@writefile{toc}{\contentsline {section}{\numberline {2}Шрифты}{1}{}\protected@file@percent }
\@writefile{toc}{\contentsline {section}{\numberline {3}Немного формул}{2}{}\protected@file@percent }
\@writefile{toc}{\contentsline {section}{\numberline {4}Иллюстрации}{2}{}\protected@file@percent }
\@writefile{lof}{\contentsline {figure}{\numberline {1}{\ignorespaces Фотограф @zababurin.ph}}{2}{}\protected@file@percent }
\newlabel{image}{{1}{2}}
\bibcite{lvovsky94latex}{1}
\@writefile{toc}{\contentsline {section}{\numberline {5}Таблицы}{3}{}\protected@file@percent }
\@writefile{lot}{\contentsline {table}{\numberline {1}{\ignorespaces Название таблицы}}{3}{}\protected@file@percent }
\newlabel{table}{{1}{3}}
\@writefile{toc}{\contentsline {section}{\numberline {6}Код}{3}{}\protected@file@percent }
\@writefile{toc}{\contentsline {section}{\numberline {7}Заключение}{3}{}\protected@file@percent }
\gdef \@abspage@last{3}
