\babel@toc {russian}{}\relax 
\contentsline {section}{\numberline {1}Введение}{1}{}%
\contentsline {section}{\numberline {2}Шрифты}{1}{}%
\contentsline {section}{\numberline {3}Немного формул}{2}{}%
\contentsline {section}{\numberline {4}Иллюстрации}{2}{}%
\contentsline {section}{\numberline {5}Таблицы}{3}{}%
\contentsline {section}{\numberline {6}Код}{3}{}%
\contentsline {section}{\numberline {7}Заключение}{3}{}%
